{
  "resolution": "main",
  "tree": {
    "src": "https://raw.githubusercontent.com/DefinitelyTyped/DefinitelyTyped/253e456e3c0bf4bd34afaceb7dcbae282da14066/webpack/index.d.ts",
    "raw": "registry:dt/webpack#1.12.9+20161119044246",
    "typings": "https://raw.githubusercontent.com/DefinitelyTyped/DefinitelyTyped/253e456e3c0bf4bd34afaceb7dcbae282da14066/webpack/index.d.ts"
  }
}
